single/arm_single_fp.vcd
$date
	Sat Jul 31 11:51:17 2021
$end
$version
	Icarus Verilog
$end
$timescale
	1s
$end
$scope module testbench_fp $end
$var wire 32 ! WriteData [31:0] $end
$var wire 1 " MemWrite $end
$var wire 32 # DataAdr [31:0] $end
$var reg 1 $ clk $end
$var reg 1 % reset $end
$scope module dut $end
$var wire 1 $ clk $end
$var wire 1 % reset $end
$var wire 32 & WriteData [31:0] $end
$var wire 32 ' ReadData [31:0] $end
$var wire 32 ( PC [31:0] $end
$var wire 1 " MemWrite $end
$var wire 32 ) Instr [31:0] $end
$var wire 32 * DataAdr [31:0] $end
$scope module arm $end
$var wire 1 $ clk $end
$var wire 1 % reset $end
$var wire 32 + WriteData [31:0] $end
$var wire 1 , RegWrite $end
$var wire 2 - RegSrc [1:0] $end
$var wire 32 . ReadData [31:0] $end
$var wire 1 / PCSrc $end
$var wire 32 0 PC [31:0] $end
$var wire 1 1 Mul $end
$var wire 1 2 MemtoReg $end
$var wire 1 " MemWrite $end
$var wire 32 3 Instr [31:0] $end
$var wire 2 4 ImmSrc [1:0] $end
$var wire 1 5 AuxW $end
$var wire 1 6 ALUSrc $end
$var wire 32 7 ALUResult [31:0] $end
$var wire 4 8 ALUFlags [3:0] $end
$var wire 4 9 ALUControl [3:0] $end
$scope module c $end
$var wire 1 $ clk $end
$var wire 1 % reset $end
$var wire 1 , RegWrite $end
$var wire 1 : RegW $end
$var wire 2 ; RegSrc [1:0] $end
$var wire 1 / PCSrc $end
$var wire 1 < PCS $end
$var wire 1 1 Mul $end
$var wire 1 2 MemtoReg $end
$var wire 1 " MemWrite $end
$var wire 1 = MemW $end
$var wire 32 > Instr [31:0] $end
$var wire 2 ? ImmSrc [1:0] $end
$var wire 2 @ FlagW [1:0] $end
$var wire 1 5 AuxW $end
$var wire 1 6 ALUSrc $end
$var wire 4 A ALUFlags [3:0] $end
$var wire 4 B ALUControl [3:0] $end
$scope module cl $end
$var wire 4 C Cond [3:0] $end
$var wire 2 D FlagWrite [1:0] $end
$var wire 1 " MemWrite $end
$var wire 1 / PCSrc $end
$var wire 1 , RegWrite $end
$var wire 1 $ clk $end
$var wire 1 % reset $end
$var wire 1 : RegW $end
$var wire 1 < PCS $end
$var wire 1 = MemW $end
$var wire 4 E Flags [3:0] $end
$var wire 2 F FlagW [1:0] $end
$var wire 1 G CondEx $end
$var wire 4 H ALUFlags [3:0] $end
$scope module cc $end
$var wire 4 I Cond [3:0] $end
$var wire 4 J Flags [3:0] $end
$var wire 1 K ge $end
$var wire 1 L zero $end
$var wire 1 M overflow $end
$var wire 1 N neg $end
$var wire 1 O carry $end
$var reg 1 G CondEx $end
$upscope $end
$scope module flagreg0 $end
$var wire 1 $ clk $end
$var wire 2 P d [1:0] $end
$var wire 1 Q en $end
$var wire 1 % reset $end
$var reg 2 R q [1:0] $end
$upscope $end
$scope module flagreg1 $end
$var wire 1 $ clk $end
$var wire 2 S d [1:0] $end
$var wire 1 T en $end
$var wire 1 % reset $end
$var reg 2 U q [1:0] $end
$upscope $end
$upscope $end
$scope module dec $end
$var wire 6 V Funct [5:0] $end
$var wire 2 W Op [1:0] $end
$var wire 1 < PCS $end
$var wire 4 X Rd [3:0] $end
$var wire 12 Y Src2 [11:0] $end
$var wire 1 : RegW $end
$var wire 2 Z RegSrc [1:0] $end
$var wire 1 2 MemtoReg $end
$var wire 1 = MemW $end
$var wire 2 [ ImmSrc [1:0] $end
$var wire 1 6 DPUSSrc $end
$var wire 1 \ DPUSOp $end
$var wire 1 ] Branch $end
$var reg 1 5 AuxW $end
$var reg 4 ^ DPUSControl [3:0] $end
$var reg 2 _ FlagW [1:0] $end
$var reg 1 1 Mul $end
$var reg 10 ` controls [9:0] $end
$upscope $end
$upscope $end
$scope module dp $end
$var wire 4 a ALUControl [3:0] $end
$var wire 1 6 ALUSrc $end
$var wire 1 5 AuxW $end
$var wire 2 b ImmSrc [1:0] $end
$var wire 1 2 MemtoReg $end
$var wire 1 1 Mul $end
$var wire 1 / PCSrc $end
$var wire 2 c RegSrc [1:0] $end
$var wire 1 , RegWrite $end
$var wire 1 $ clk $end
$var wire 1 % reset $end
$var wire 32 d WriteData [31:0] $end
$var wire 4 e WA3 [3:0] $end
$var wire 32 f SrcB [31:0] $end
$var wire 32 g SrcA [31:0] $end
$var wire 32 h Result [31:0] $end
$var wire 32 i ReadData [31:0] $end
$var wire 4 j RA2 [3:0] $end
$var wire 4 k RA1 [3:0] $end
$var wire 32 l PCPlus8 [31:0] $end
$var wire 32 m PCPlus4 [31:0] $end
$var wire 32 n PCNext [31:0] $end
$var wire 32 o PC [31:0] $end
$var wire 32 p Instr [31:0] $end
$var wire 32 q ExtImm [31:0] $end
$var wire 32 r AuxiliarOut [31:0] $end
$var wire 32 s ALUResult [31:0] $end
$var wire 4 t ALUFlags [3:0] $end
$scope module dpus $end
$var wire 4 u DPUSControl [3:0] $end
$var wire 32 v b [31:0] $end
$var wire 32 w a [31:0] $end
$var wire 32 x ResultFPU [31:0] $end
$var wire 32 y ResultALU [31:0] $end
$var wire 4 z FlagsFPU [3:0] $end
$var wire 4 { FlagsALU [3:0] $end
$var wire 32 | AuxiliarALU [31:0] $end
$var reg 32 } Auxiliar [31:0] $end
$var reg 4 ~ DPUSFlags [3:0] $end
$var reg 32 !" Result [31:0] $end
$scope module alu $end
$var wire 3 "" ALUControl [2:0] $end
$var wire 1 #" carry $end
$var wire 1 $" overflow $end
$var wire 32 %" sa [31:0] $end
$var wire 32 &" sb [31:0] $end
$var wire 64 '" umull [63:0] $end
$var wire 33 (" sum [32:0] $end
$var wire 64 )" smull [63:0] $end
$var wire 64 *" mull [63:0] $end
$var wire 32 +" b [31:0] $end
$var wire 32 ," a [31:0] $end
$var wire 32 -" Auxiliar [31:0] $end
$var wire 4 ." ALUFlags [3:0] $end
$var reg 32 /" Result [31:0] $end
$var reg 1 0" neg $end
$var reg 1 1" zero $end
$upscope $end
$scope module fpu $end
$var wire 2 2" FPUControl [1:0] $end
$var wire 4 3" single_mult_flags [3:0] $end
$var wire 32 4" single_mult [31:0] $end
$var wire 4 5" single_add_flags [3:0] $end
$var wire 32 6" single_add [31:0] $end
$var wire 4 7" half_mult_flags [3:0] $end
$var wire 16 8" half_mult [15:0] $end
$var wire 4 9" half_add_flags [3:0] $end
$var wire 16 :" half_add [15:0] $end
$var wire 32 ;" b [31:0] $end
$var wire 32 <" a [31:0] $end
$var reg 4 =" FPUFlags [3:0] $end
$var reg 32 >" Result [31:0] $end
$scope module half_fp_adder $end
$var wire 16 ?" a [15:0] $end
$var wire 16 @" b [15:0] $end
$var wire 1 A" neg $end
$var wire 1 B" sign_b $end
$var wire 1 C" sign_a $end
$var wire 16 D" res_add [15:0] $end
$var wire 11 E" mantisa_b [10:0] $end
$var wire 11 F" mantisa_a [10:0] $end
$var wire 4 G" flags_add [3:0] $end
$var wire 5 H" exponent_b [4:0] $end
$var wire 5 I" exponent_a [4:0] $end
$var reg 6 J" adjust_exponent [5:0] $end
$var reg 10 K" adjust_mant [9:0] $end
$var reg 5 L" big_exponent [4:0] $end
$var reg 1 M" carry $end
$var reg 5 N" diff_exponente [4:0] $end
$var reg 11 O" mant_a [10:0] $end
$var reg 11 P" mant_b [10:0] $end
$var reg 12 Q" mant_sum [11:0] $end
$var reg 1 R" overflow $end
$var reg 5 S" res_exponent [4:0] $end
$var reg 10 T" res_mant [9:0] $end
$var reg 1 U" res_sign $end
$var reg 1 V" zero $end
$upscope $end
$scope module half_fp_mult $end
$var wire 16 W" a [15:0] $end
$var wire 16 X" b [15:0] $end
$var wire 1 Y" carry $end
$var wire 1 Z" neg $end
$var wire 1 [" overflow $end
$var wire 1 \" res_sign $end
$var wire 1 ]" sign_b $end
$var wire 1 ^" sign_a $end
$var wire 16 _" res_mult [15:0] $end
$var wire 10 `" norm_mant [9:0] $end
$var wire 5 a" norm_exponent [4:0] $end
$var wire 11 b" mult_mantisa [10:0] $end
$var wire 6 c" mult_exponent [5:0] $end
$var wire 11 d" mantisa_b [10:0] $end
$var wire 11 e" mantisa_a [10:0] $end
$var wire 22 f" long_mult_mantisa [21:0] $end
$var wire 4 g" flags_mult [3:0] $end
$var wire 5 h" exponent_b [4:0] $end
$var wire 5 i" exponent_a [4:0] $end
$var reg 5 j" res_exponent [4:0] $end
$var reg 10 k" res_mant [9:0] $end
$var reg 1 l" zero $end
$upscope $end
$scope module single_fp_adder $end
$var wire 1 m" neg $end
$var wire 1 n" sign_b $end
$var wire 1 o" sign_a $end
$var wire 32 p" res_add [31:0] $end
$var wire 24 q" mantisa_b [23:0] $end
$var wire 24 r" mantisa_a [23:0] $end
$var wire 4 s" flags_add [3:0] $end
$var wire 8 t" exponent_b [7:0] $end
$var wire 8 u" exponent_a [7:0] $end
$var wire 32 v" b [31:0] $end
$var wire 32 w" a [31:0] $end
$var reg 9 x" adjust_exponent [8:0] $end
$var reg 23 y" adjust_mant [22:0] $end
$var reg 8 z" big_exponent [7:0] $end
$var reg 1 {" carry $end
$var reg 8 |" diff_exponente [7:0] $end
$var reg 24 }" mant_a [23:0] $end
$var reg 24 ~" mant_b [23:0] $end
$var reg 25 !# mant_sum [24:0] $end
$var reg 1 "# overflow $end
$var reg 8 ## res_exponent [7:0] $end
$var reg 23 $# res_mant [22:0] $end
$var reg 1 %# res_sign $end
$var reg 1 &# zero $end
$upscope $end
$scope module single_fp_mult $end
$var wire 1 '# carry $end
$var wire 1 (# neg $end
$var wire 1 )# overflow $end
$var wire 1 *# res_sign $end
$var wire 1 +# sign_b $end
$var wire 1 ,# sign_a $end
$var wire 32 -# res_mult [31:0] $end
$var wire 23 .# norm_mant [22:0] $end
$var wire 8 /# norm_exponent [7:0] $end
$var wire 24 0# mult_mantisa [23:0] $end
$var wire 9 1# mult_exponent [8:0] $end
$var wire 24 2# mantisa_b [23:0] $end
$var wire 24 3# mantisa_a [23:0] $end
$var wire 48 4# long_mult_mantisa [47:0] $end
$var wire 4 5# flags_mult [3:0] $end
$var wire 8 6# exponent_b [7:0] $end
$var wire 8 7# exponent_a [7:0] $end
$var wire 32 8# b [31:0] $end
$var wire 32 9# a [31:0] $end
$var reg 8 :# res_exponent [7:0] $end
$var reg 23 ;# res_mant [22:0] $end
$var reg 1 <# zero $end
$upscope $end
$upscope $end
$upscope $end
$scope module ext $end
$var wire 2 =# ImmSrc [1:0] $end
$var wire 24 ># Instr [23:0] $end
$var reg 32 ?# ExtImm [31:0] $end
$upscope $end
$scope module pcadd1 $end
$var wire 32 @# b [31:0] $end
$var wire 32 A# y [31:0] $end
$var wire 32 B# a [31:0] $end
$upscope $end
$scope module pcadd2 $end
$var wire 32 C# a [31:0] $end
$var wire 32 D# b [31:0] $end
$var wire 32 E# y [31:0] $end
$upscope $end
$scope module pcmux $end
$var wire 32 F# d0 [31:0] $end
$var wire 1 / s $end
$var wire 32 G# y [31:0] $end
$var wire 32 H# d1 [31:0] $end
$upscope $end
$scope module pcreg $end
$var wire 1 $ clk $end
$var wire 32 I# d [31:0] $end
$var wire 1 % reset $end
$var reg 32 J# q [31:0] $end
$upscope $end
$scope module ra1mux $end
$var wire 4 K# d0 [3:0] $end
$var wire 4 L# d1 [3:0] $end
$var wire 4 M# d2 [3:0] $end
$var wire 2 N# s [1:0] $end
$var wire 4 O# y [3:0] $end
$upscope $end
$scope module ra2mux $end
$var wire 4 P# d0 [3:0] $end
$var wire 4 Q# d1 [3:0] $end
$var wire 4 R# d2 [3:0] $end
$var wire 2 S# s [1:0] $end
$var wire 4 T# y [3:0] $end
$upscope $end
$scope module resmux $end
$var wire 32 U# d0 [31:0] $end
$var wire 1 2 s $end
$var wire 32 V# y [31:0] $end
$var wire 32 W# d1 [31:0] $end
$upscope $end
$scope module rf $end
$var wire 1 $ clk $end
$var wire 32 X# r15 [31:0] $end
$var wire 4 Y# ra1 [3:0] $end
$var wire 4 Z# ra2 [3:0] $end
$var wire 4 [# wa4 [3:0] $end
$var wire 32 \# wd3 [31:0] $end
$var wire 32 ]# wd4 [31:0] $end
$var wire 1 , we3 $end
$var wire 1 ^# we4 $end
$var wire 4 _# wa3 [3:0] $end
$var wire 32 `# rd2 [31:0] $end
$var wire 32 a# rd1 [31:0] $end
$upscope $end
$scope module srcbmux $end
$var wire 32 b# d0 [31:0] $end
$var wire 32 c# d1 [31:0] $end
$var wire 1 6 s $end
$var wire 32 d# y [31:0] $end
$upscope $end
$scope module wa3mux $end
$var wire 4 e# d0 [3:0] $end
$var wire 4 f# d1 [3:0] $end
$var wire 1 1 s $end
$var wire 4 g# y [3:0] $end
$upscope $end
$upscope $end
$upscope $end
$scope module dmem $end
$var wire 32 h# a [31:0] $end
$var wire 1 $ clk $end
$var wire 32 i# rd [31:0] $end
$var wire 32 j# wd [31:0] $end
$var wire 1 " we $end
$upscope $end
$scope module imem $end
$var wire 32 k# a [31:0] $end
$var wire 32 l# rd [31:0] $end
$upscope $end
$upscope $end
$upscope $end
$enddefinitions $end
#0
$dumpvars
b11100000010011110000000000001111 l#
b0 k#
b1000 j#
b11100000010011110000000000001111 i#
b0 h#
b0 g#
b1111 f#
b0 e#
b1000 d#
b1111 c#
b1000 b#
b1000 a#
b1000 `#
b0 _#
0^#
b0 ]#
b0 \#
b0 [#
b1111 Z#
b1111 Y#
b1000 X#
b11100000010011110000000000001111 W#
b0 V#
b0 U#
b1111 T#
b0 S#
b0 R#
b0 Q#
b1111 P#
b1111 O#
b0 N#
b1111 M#
b1111 L#
b1111 K#
b0 J#
b100 I#
b0 H#
b100 G#
b100 F#
b1000 E#
b100 D#
b100 C#
b0 B#
b100 A#
b100 @#
b1111 ?#
b10011110000000000001111 >#
b0 =#
0<#
b10000 ;#
b10000001 :#
b1000 9#
b1000 8#
b0 7#
b0 6#
b0 5#
b10000000000000000001000000000000000000001000000 4#
b100000000000000000001000 3#
b100000000000000000001000 2#
b110000001 1#
b10000000000000000001000 0#
b10000001 /#
b10000 .#
b1000000100000000000000000010000 -#
0,#
0+#
0*#
0)#
0(#
0'#
0&#
0%#
b1000 $#
b1 ##
0"#
b1000000000000000000010000 !#
b100000000000000000001000 ~"
b100000000000000000001000 }"
b0 |"
1{"
b0 z"
b1000 y"
b1 x"
b1000 w"
b1000 v"
b0 u"
b0 t"
b10 s"
b100000000000000000001000 r"
b100000000000000000001000 q"
b100000000000000000001000 p"
0o"
0n"
0m"
0l"
b10000 k"
b10001 j"
b0 i"
b0 h"
b0 g"
b100000100000001000000 f"
b10000001000 e"
b10000001000 d"
b110001 c"
b1000001000 b"
b10001 a"
b10000 `"
b100010000010000 _"
0^"
0]"
0\"
0["
0Z"
0Y"
b1000 X"
b1000 W"
0V"
0U"
b1000 T"
b1 S"
0R"
b100000010000 Q"
b10000001000 P"
b10000001000 O"
b0 N"
1M"
b0 L"
b1000 K"
b1 J"
b0 I"
b0 H"
b10 G"
b10000001000 F"
b10000001000 E"
b10000001000 D"
0C"
0B"
0A"
b1000 @"
b1000 ?"
b100010000010000 >"
b0 ="
b1000 <"
b1000 ;"
b10000001000 :"
b10 9"
b100010000010000 8"
b0 7"
b100000000000000000001000 6"
b10 5"
b1000000100000000000000000010000 4"
b0 3"
b1 2"
11"
00"
b0 /"
b100 ."
b0 -"
b1000 ,"
b1000 +"
b1000000 *"
b1000000 )"
b0 ("
b1000000 '"
b1000 &"
b1000 %"
0$"
0#"
b1 ""
b0 !"
b100 ~
b0 }
b0 |
b100 {
b0 z
b0 y
b100010000010000 x
b1000 w
b1000 v
b1 u
b100 t
b0 s
b0 r
b1111 q
b11100000010011110000000000001111 p
b0 o
b100 n
b100 m
b1000 l
b1111 k
b1111 j
b11100000010011110000000000001111 i
b0 h
b1000 g
b1000 f
b0 e
b1000 d
b0 c
b0 b
b1 a
b1001 `
b0 _
b1 ^
0]
1\
b0 [
b0 Z
b1111 Y
b0 X
b0 W
b100 V
b0 U
0T
b1 S
b0 R
0Q
b0 P
0O
0N
0M
0L
1K
b0 J
b1110 I
b100 H
1G
b0 F
b0 E
b0 D
b1110 C
b1 B
b100 A
b0 @
b0 ?
b11100000010011110000000000001111 >
0=
0<
b0 ;
1:
b1 9
b100 8
b0 7
06
05
b0 4
b11100000010011110000000000001111 3
02
01
b0 0
0/
b11100000010011110000000000001111 .
b0 -
1,
b1000 +
b0 *
b11100000010011110000000000001111 )
b0 (
b11100000010011110000000000001111 '
b1000 &
1%
1$
b0 #
0"
b1000 !
$end
#5
0$
#10
1$
#15
0$
#20
1$
#22
0%
#25
0$
#30
0$"
b100 7"
b100 g"
1l"
b0 P
b100 3"
b100 5#
1<#
b0 j"
0#"
b0 :#
00"
b0 8"
b0 _"
b0 k"
b10000111000 :"
b10000111000 D"
b111000 T"
b0 4"
b0 -#
b0 ;#
b100000000000000000111000 6"
b100000000000000000111000 p"
b111000 $#
b1110000 `"
b111000 K"
b10 z
b10 ="
b10000111000 x
b10000111000 >"
b1110000 .#
b111000 y"
b100001110000 Q"
b0 S
b0 j
b0 T#
b0 Z#
b0 k
b0 O#
b0 Y#
b0 ""
b0 2"
16
b1000000000000000001110000 !#
b1000111000 b"
b10001110000 P"
b10000000000 O"
b0 8
b0 A
b0 H
b0 t
b0 ~
b1110000 h
b1110000 H#
b1110000 V#
b1110000 \#
b1000000100101101110110011000000 '
b1000000100101101110110011000000 .
b1000000100101101110110011000000 i
b1000000100101101110110011000000 W#
b1000000100101101110110011000000 i#
b10001110000 d"
b10001110000 E"
b1110000 q
b1110000 ?#
b1110000 c#
b1 e
b1 _#
b1 g#
b0 9
b0 B
b0 ^
b0 a
b0 u
b101001 `
b10000000000000000111000 0#
b100000000000000001110000 ~"
b100000000000000000000000 }"
b100011100000000000000 f"
b10000000000 e"
b10000000000 F"
b0 {
b0 ."
01"
b1110000 #
b1110000 *
b1110000 7
b1110000 s
b1110000 !"
b1110000 U#
b1110000 h#
b100000000000000001110000 2#
b100000000000000001110000 q"
b1110000 X"
b1110000 @"
b100000000001000001110000 >#
b1 [#
b0 f#
b1 e#
b1 Q#
b0 P#
b0 M#
b0 K#
b1110000 Y
b1 X
b101000 V
b10000000000000000111000000000000000000000000000 4#
b100000000000000000000000 3#
b100000000000000000000000 r"
b0 W"
b0 ?"
b0 *"
b1110000 y
b1110000 /"
b1110000 &"
b1110000 f
b1110000 v
b1110000 +"
b1110000 ;"
b1110000 v"
b1110000 8#
b1110000 d#
b11100010100000000001000001110000 )
b11100010100000000001000001110000 3
b11100010100000000001000001110000 >
b11100010100000000001000001110000 p
b11100010100000000001000001110000 l#
b1110000 ("
b0 '"
b0 )"
b0 %"
b0 g
b0 w
b0 ,"
b0 <"
b0 w"
b0 9#
b0 a#
b0 !
b0 &
b0 +
b0 d
b0 `#
b0 b#
b0 j#
b1000 n
b1000 G#
b1000 I#
b1100 l
b1100 E#
b1100 X#
b1000 m
b1000 A#
b1000 C#
b1000 F#
b100 (
b100 0
b100 o
b100 B#
b100 J#
b100 k#
1$
#35
0$
#40
b10001000000 x
b10001000000 >"
b10001000000 :"
b10001000000 D"
b1000000 T"
b100000000000000001000000 6"
b100000000000000001000000 p"
b1000000 $#
b10000000 `"
b1000000 K"
b10000000 .#
b1000000 y"
b100010000000 Q"
b10000000 h
b10000000 H#
b10000000 V#
b10000000 \#
b1000000101100000000000000000000 '
b1000000101100000000000000000000 .
b1000000101100000000000000000000 i
b1000000101100000000000000000000 W#
b1000000101100000000000000000000 i#
b1000000000000000010000000 !#
b1001000000 b"
b10010000000 P"
b10000000 #
b10000000 *
b10000000 7
b10000000 s
b10000000 !"
b10000000 U#
b10000000 h#
b10000000000000001000000 0#
b100000000000000010000000 ~"
b100100000000000000000 f"
b10010000000 d"
b10010000000 E"
b10000000 y
b10000000 /"
b10000000000000001000000000000000000000000000000 4#
b100000000000000010000000 2#
b100000000000000010000000 q"
b10000000 X"
b10000000 @"
b10000000 ("
b10000000 &"
b10000000 f
b10000000 v
b10000000 +"
b10000000 ;"
b10000000 v"
b10000000 8#
b10000000 d#
b10000000 q
b10000000 ?#
b10000000 c#
b10 e
b10 _#
b10 g#
b100000000010000010000000 >#
b10 [#
b10 e#
b10 Q#
b10000000 Y
b10 X
b11100010100000000010000010000000 )
b11100010100000000010000010000000 3
b11100010100000000010000010000000 >
b11100010100000000010000010000000 p
b11100010100000000010000010000000 l#
b1100 n
b1100 G#
b1100 I#
b10000 l
b10000 E#
b10000 X#
b1100 m
b1100 A#
b1100 C#
b1100 F#
b1000 (
b1000 0
b1000 o
b1000 B#
b1000 J#
b1000 k#
1$
#45
0$
#50
b10001010000 x
b10001010000 >"
b10001010000 :"
b10001010000 D"
b1010000 T"
b100000000000000001010000 6"
b100000000000000001010000 p"
b1010000 $#
b10100000 `"
b1010000 K"
b10100000 .#
b1010000 y"
b100010100000 Q"
b10100000 h
b10100000 H#
b10100000 V#
b10100000 \#
bx '
bx .
bx i
bx W#
bx i#
b1000000000000000010100000 !#
b1001010000 b"
b10010100000 P"
b10100000 #
b10100000 *
b10100000 7
b10100000 s
b10100000 !"
b10100000 U#
b10100000 h#
b10000000000000001010000 0#
b100000000000000010100000 ~"
b100101000000000000000 f"
b10010100000 d"
b10010100000 E"
b10100000 y
b10100000 /"
b10000000000000001010000000000000000000000000000 4#
b100000000000000010100000 2#
b100000000000000010100000 q"
b10100000 X"
b10100000 @"
b10100000 ("
b10100000 &"
b10100000 f
b10100000 v
b10100000 +"
b10100000 ;"
b10100000 v"
b10100000 8#
b10100000 d#
b10100000 q
b10100000 ?#
b10100000 c#
b111 e
b111 _#
b111 g#
b100000000111000010100000 >#
b111 [#
b111 e#
b111 Q#
b10100000 Y
b111 X
b11100010100000000111000010100000 )
b11100010100000000111000010100000 3
b11100010100000000111000010100000 >
b11100010100000000111000010100000 p
b11100010100000000111000010100000 l#
b10000 n
b10000 G#
b10000 I#
b10100 l
b10100 E#
b10100 X#
b10000 m
b10000 A#
b10000 C#
b10000 F#
b1100 (
b1100 0
b1100 o
b1100 B#
b1100 J#
b1100 k#
1$
#55
0$
#60
b10000000001 x
b10000000001 >"
b10000000001 :"
b10000000001 D"
b1 T"
b100000000000000000000001 6"
b100000000000000000000001 p"
b1 $#
b1 K"
b1 y"
b11 `"
b100000000011 Q"
b11 h
b11 H#
b11 V#
b11 \#
b11100000010011110000000000001111 '
b11100000010011110000000000001111 .
b11100000010011110000000000001111 i
b11100000010011110000000000001111 W#
b11100000010011110000000000001111 i#
b11 .#
b1000000000000000000000011 !#
b1000000001 b"
b10000000011 P"
b11 #
b11 *
b11 7
b11 s
b11 !"
b11 U#
b11 h#
b10000000000000000000001 0#
b100000000000000000000011 ~"
b100000000110000000000 f"
b10000000011 d"
b10000000011 E"
b11 y
b11 /"
b10000000000000000000001100000000000000000000000 4#
b100000000000000000000011 2#
b100000000000000000000011 q"
b11 X"
b11 @"
b11 ("
bx !
bx &
bx +
bx d
bx `#
bx b#
bx j#
b11 &"
b11 f
b11 v
b11 +"
b11 ;"
b11 v"
b11 8#
b11 d#
b11 j
b11 T#
b11 Z#
b11 q
b11 ?#
b11 c#
b100 e
b100 _#
b100 g#
b100000000100000000000011 >#
b100 [#
b100 e#
b100 Q#
b11 P#
b11 M#
b11 Y
b100 X
b11100010100000000100000000000011 )
b11100010100000000100000000000011 3
b11100010100000000100000000000011 >
b11100010100000000100000000000011 p
b11100010100000000100000000000011 l#
b10100 n
b10100 G#
b10100 I#
b11000 l
b11000 E#
b11000 X#
b10100 m
b10100 A#
b10100 C#
b10100 F#
b10000 (
b10000 0
b10000 o
b10000 B#
b10000 J#
b10000 k#
1$
#65
0$
#70
b10000000000 x
b10000000000 >"
b10000000000 :"
b10000000000 D"
b0 T"
b100000000000000000000000 6"
b100000000000000000000000 p"
b0 $#
b0 K"
b1 S
b0 y"
b0 `"
b100000000000 Q"
b100 8
b100 A
b100 H
b100 t
b100 ~
b0 h
b0 H#
b0 V#
b0 \#
b0 .#
b1000000000000000000000000 !#
b1000000000 b"
b10000000000 P"
b100 {
b100 ."
11"
b0 #
b0 *
b0 7
b0 s
b0 !"
b0 U#
b0 h#
b10000000000000000000000 0#
b100000000000000000000000 ~"
b100000000000000000000 f"
b10000000000 d"
b10000000000 E"
b0 y
b0 /"
b10000000000000000000000000000000000000000000000 4#
b100000000000000000000000 2#
b100000000000000000000000 q"
b0 X"
b0 @"
b0 ("
b0 !
b0 &
b0 +
b0 d
b0 `#
b0 b#
b0 j#
b0 &"
b0 f
b0 v
b0 +"
b0 ;"
b0 v"
b0 8#
b0 d#
b0 j
b0 T#
b0 Z#
b0 q
b0 ?#
b0 c#
b11 e
b11 _#
b11 g#
b100000000011000000000000 >#
b11 [#
b11 e#
b11 Q#
b0 P#
b0 M#
b0 Y
b11 X
b11100010100000000011000000000000 )
b11100010100000000011000000000000 3
b11100010100000000011000000000000 >
b11100010100000000011000000000000 p
b11100010100000000011000000000000 l#
b11000 n
b11000 G#
b11000 I#
b11100 l
b11100 E#
b11100 X#
b11000 m
b11000 A#
b11000 C#
b11000 F#
b10100 (
b10100 0
b10100 o
b10100 B#
b10100 J#
b10100 k#
1$
#75
0$
#80
b11101 k"
b11111 S"
1R"
b10001 a"
b11111111 ##
1"#
b11101 `"
b11111 J"
b1111111100 K"
0M"
b10000001 /#
1Z"
1\"
b11111 N"
b11111 L"
0$"
b10 P
b11111111 x"
b11111111111111111111100 y"
0{"
b1000 7"
b1000 g"
0l"
b1001 z
b1001 ="
b11111111100 Q"
b1111110000000000 :"
b1111110000000000 D"
b1001 9"
b1001 G"
1A"
1U"
b11101 ;#
1(#
1*#
b11111111 |"
b11111111 z"
1]"
b10000 c"
b11111 h"
1B"
b11111 H"
b11111 r
b11111 }
b11111 ]#
b11101 .#
b1000 3"
b1000 5#
0<#
b111111111111111111111100 !#
b11111111100000000000000000000000 6"
b11111111100000000000000000000000 p"
b1001 5"
b1001 s"
1m"
1%#
b10000011101 b"
b1100010000011101 8"
b1100010000011101 _"
b10001 j"
b11111111100 P"
b0 O"
b10000100000 e"
b10000100000 F"
b11111 |
b11111 -"
1#"
b10000000 1#
b11111111 6#
1+#
b11111111 t"
1n"
b0 S
b11100 h
b11100 H#
b11100 V#
b11100 \#
b11100000010101001000000000000011 '
b11100000010101001000000000000011 .
b11100000010101001000000000000011 i
b11100000010101001000000000000011 W#
b11100000010101001000000000000011 i#
00"
b100000000000000000011101 0#
b11000000100000000000000000011101 4"
b11000000100000000000000000011101 -#
b10000001 :#
b111111111111111111111100 ~"
b0 }"
b1000001110111110000000 f"
b11111111100 d"
b11111111100 E"
b100000000000000000100000 3#
b100000000000000000100000 r"
b100000 W"
b100000 ?"
b1111111111111111111111111111110000000 *"
b10 8
b10 A
b10 H
b10 t
b10 ~
b11100 #
b11100 *
b11100 7
b11100 s
b11100 !"
b11100 U#
b11100 h#
b100000000000000000011101111111111111111110000000 4#
b111111111111111111111100 2#
b111111111111111111111100 q"
b1111111111111100 X"
b1111111111111100 @"
b100000 !
b100000 &
b100000 +
b100000 d
b100000 `#
b100000 b#
b100000 j#
b1111111111111111111111111111110000000 '"
b1111111111111111111111111111111111111111111111111111111110000000 )"
b100000 %"
b100000 g
b100000 w
b100000 ,"
b100000 <"
b100000 w"
b100000 9#
b100000 a#
1/
0T
0Q
b10 {
b10 ."
01"
b11100 y
b11100 /"
b100000000000000000000000000011100 ("
b1111110000000000 x
b1111110000000000 >"
b1 N#
0,
b11111111111111111111111111111100 &"
b11111111111111111111111111111100 f
b11111111111111111111111111111100 v
b11111111111111111111111111111100 +"
b11111111111111111111111111111100 ;"
b11111111111111111111111111111100 v"
b11111111111111111111111111111100 8#
b11111111111111111111111111111100 d#
b1111 j
b1111 T#
b1111 Z#
b1111 k
b1111 O#
b1111 Y#
1<
b0 D
b0 ""
b0 2"
b1 -
b1 ;
b1 Z
b1 c
b10 4
b10 ?
b10 [
b10 b
b10 =#
0:
1]
0\
b11111111111111111111111111111100 q
b11111111111111111111111111111100 ?#
b11111111111111111111111111111100 c#
b1111 e
b1111 _#
b1111 g#
b0 @
b0 F
b0 _
b0 9
b0 B
b0 ^
b0 a
b0 u
b110100010 `
b111111111111111111111111 >#
b1111 [#
b1111 f#
b1111 e#
b1111 R#
b1111 Q#
b1111 P#
b1111 M#
b1111 K#
b111111111111 Y
b1111 X
b101111 V
b10 W
b11101010111111111111111111111111 )
b11101010111111111111111111111111 3
b11101010111111111111111111111111 >
b11101010111111111111111111111111 p
b11101010111111111111111111111111 l#
b11100 n
b11100 G#
b11100 I#
b100000 l
b100000 E#
b100000 X#
b11100 m
b11100 A#
b11100 C#
b11100 F#
b11000 (
b11000 0
b11000 o
b11000 B#
b11000 J#
b11000 k#
1$
#85
0$
